Practical R
…
Let's use the `penguins` dataset again. We want to extract the **rows** with data for male Adelie penguins

.pull-left[

```r
filter(penguins, 
       (species == 'Adelie') & 
         (sex == 'male'))
```
]
.pull-right[

```
# A tibble: 73 x 8
   species island bill_length_mm bill_depth_mm flipper_length_… body_mass_g
   <fct>   <fct>           <dbl>         <dbl>            <int>       <int>
 1 Adelie  Torge…           39.1          18.7              181        3750
 2 Adelie  Torge…           39.3          20.6              190        3650
 3 Adelie  Torge…           39.2          19.6              195        4675
 4 Adelie  Torge…           38.6          21.2              191        3800
 5 Adelie  Torge…           34.6          21.1              198        4400
 6 Adelie  Torge…           42.5          20.7              197        4500
 7 Adelie  Torge…           46            21.5              194        4200
 8 Adelie  Biscoe           37.7          18.7              180        3600
 9 Adelie  Biscoe           38.2          18.1              185        3950
10 Adelie  Biscoe           38.8          17.2              180        3800
# … with 63 more rows, and 2 more variables: sex <fct>, year <int>
```
…
.pull-left[

```r
filter(penguins, (island == 'Biscoe') & 
  ((body_mass_g < 3000) | (body_mass_g > 5000)))
```

I'm a big fan of using parentheses to specify the individual
comparisons in a complex query like we're doing here. 
]
.pull-right[

```
# A tibble: 65 x 8
   species island bill_length_mm bill_depth_mm flipper_length_… body_mass_g
   <fct>   <fct>           <dbl>         <dbl>            <int>       <int>
 1 Adelie  Biscoe           34.5          18.1              187        2900
 2 Adelie  Biscoe           36.5          16.6              181        2850
 3 Adelie  Biscoe           36.4          17.1              184        2850
 4 Adelie  Biscoe           37.9          18.6              193        2925
 5 Gentoo  Biscoe           50            16.3              230        5700
 6 Gentoo  Biscoe           50            15.2              218        5700
 7 Gentoo  Biscoe           47.6          14.5              215        5400
 8 Gentoo  Biscoe           46.7          15.3              219        5200
 9 Gentoo  Biscoe           46.8          15.4              215        5150
10 Gentoo  Biscoe           49            16.1              216        5550
# … with 55 more rows, and 2 more variables: sex <fct>, year <int>
```
…
